# Unmask the flag which corresponds to ARCH.
-ia64

# This is a list of USE flags that should not be used on ia64.

# Mattéo Rossillol‑‑Laruelle <beatussum@protonmail.com> (2019‑08‑31)
# Dependency not keyworded (dev-libs/libindicate).
ayatana

# Sergei Trofimovich <slyfox@gentoo.org> (2017-06-17)
# There is no luajit support on ia64. Bug #554376
luajit
luajittex

# Andreas Sturmlechner <asturm@gentoo.org> (2017-02-25)
# kwallet integration split from kde to distinct flag
kwallet

# Julian Ospald <hasufell@gentoo.org> (2015-09-20)
# no LibreSSL support yet
curl_ssl_libressl
libressl

# No hardware to test by the team
3dfx
bluetooth
bluray
dvb
dvd
gphoto2
gps
ios
ipod
lirc
pcmcia
pda
scanner
sms
v4l
wifi

# Hardware not available on ia64
apm
battery
lm-sensors
pm-utils

# Stuff that doesn't work on ia64, or not tested
afs
blas
djbfft
emboss
jack
lapack
lqr
capi
lensfun
kde
metalink
upnp
fdk
valgrind
matplotlib
mongodb
pgm
scim

# Stuff we don't want
antlr
lasi
mpi
networkmanager
octave
timidity
semantic-desktop
fits
libburn
topal
indi
flite
nut
sctp
bs2b
tokyocabinet
ots
vaapi
librtmp
rtmp
vpx
frei0r
lpsol
prelude
ladspa
aacplus
devil
gts
clang
redis

# Stuff that doesn't compile on ia64
diet
emf
mono
xemacs

# Other

# Raúl Porcel <armin76@gentoo.org> (2014-08-20)
# Upstream drops support on ia64 from 4.0 onwards, bug #430352
ocamlopt


# Raúl Porcel <armin76@gentoo.org> (2011-04-23)
# Needs to be tested
video_cards_nouveau

# Samuli Suominen <ssuominen@gentoo.org> (2009-12-02)
# This will need media-sound/musepack-tools
musepack

# Raúl Porcel <armin76@gentoo.org> (2009-03-20)
# Current webkit segfaults
webkit

# Ben de Groot <yngwin@gentoo.org> (2009-02-11)
# Both dev-qt/qtphonon and media-sound/phonon are unkeyworded
phonon

# see email to gentoo-dev with subject "use.mask and PHP5's crazy IUSE"
# Dated Sat, 31 Jul 2004 14:49:28 -0700, from robbat2@gentoo.org
# all of these are binary-only, and not presently available on this
# architecture.
qdbm

# James Le Cuirot <chewi@gentoo.org> (2015-07-11)
# We don't support java on ia64.
java
pdfannotextractor

# Matt Turner <mattst88@gentoo.org>
# llvm is not keyworded
video_cards_amdgpu
video_cards_radeonsi

# Diego Pettenò <flameeyes@gentoo.org> (2006-12-06)
# Mask ALSA drivers for ISA cards
alsa_cards_msnd-pinnacle
alsa_cards_sb16
alsa_cards_sbawe
alsa_cards_sscape
alsa_cards_wavefront

# Diego Elio Pettenò <flameeyes@gentoo.org> (2012-08-21)
# IPMI is only implemented for x86, amd64 and ia64
-ipmi

# Michael Sterrett <mr_bones_@gentoo.org> (2012-08-24)
# media-sound/fluidsynth isn't keyworded
fluidsynth

# Anthony G. Basile <blueness@gentoo.org> (2012-04-15)
# Pulls in net-libs/axtls which is not keyworded for arch
curl_ssl_axtls

# Alexandre Rostovtsev <tetromino@gentoo.org> (2012-12-31)
# net-misc/connman is not keyworded, bug 348308
connman

# Alexandre Rostovtsev <tetromino@gentoo.org> (2012-12-31)
# media-libs/xine-lib is not keyworded
xine

template-haskell

# toolkit for nvidia binary drivers
cg

# Chí-Thanh Christopher Nguyễn <chithanh@gentoo.org> (2013-08-22)
# virtual/opencl is not keyworded
opencl

# Chí-Thanh Christopher Nguyễn <chithanh@gentoo.org> (2013-11-10)
# sys-devel/llvm s not keyworded, bug #320221
llvm

# Pacho Ramos <pacho@gentoo.org> (2014-01-08)
# Unmask systemd since it is keyworded here.
-systemd

# sys-libs/libseccomp has not been ported to this arch yet #524148
seccomp

# need to test sys-cluster/glusterfs #519618
glusterfs

# need to test ceph and friends #519618
rbd

# Ben de Groot <yngwin@gentoo.org> (2015-02-01)
# please remove when keyworded
qt5
