# Copyright 1999-2019 Gentoo Authors
# Distributed under the terms of the GNU General Public License v2

# Matt Turner <mattst88@gentoo.org> (2018-12-22)
# net-libs/zeromq is not keyworded
zeromq

# Andrey Utkin <andrey_utkin@gentoo.org> (2018-06-13)
# No ACPI support on alpha. Bug #657332
acpi

# Tobias Klausmann <klausman@gentoo.org> (2017-03-03)
# There is no luajit support on alpha. Bugs #554376, #608322.
luajit
luajittex

# Andreas Sturmlechner <asturm@gentoo.org> (2017-02-25)
# kwallet integration split from kde to distinct flag
kwallet

# Tobias Klausmann <klausman@gentoo.org> (2016-06-07)
# We currently do not have the resources to AT qt5 packages.
# This may change when/if qt4 goes away.
qt5

# Tobias Klausmann <klausman@gentoo.org> (2016-02-05)
# Newer versions of libgadu depend on protobuf-c, which doesn't
# compile on alpha as of slot:0.
gadu

# Julian Ospald <hasufell@gentoo.org> (2015-09-20)
# no LibreSSL support yet
curl_ssl_libressl
libressl

# Unmask the flag which corresponds to ARCH.
-alpha

# This file masks out USE flags that are simply NOT allowed in the default
# profile for any architecture.  This works, for example, if a non-default
# profile (such as the selinux profiles) have a USE flag associated with
# them.

# No hardware to test by the team
3dfx
apcupsd
bluetooth
bluray
chipcard
dvb
gps
hbci
ios
ipod
mtp
lirc
openct
pcmcia
pda
sms
upnp
wifi

# Hardware not available on alpha
apm
battery
dmi
pm-utils

# Stuff that doesn't work on alpha, or not tested
clang
djbfft
emboss
hardened
mecab
netbeans
timidity
valgrind
vaapi
librtmp
rtmp
v4l
vpx
kde
quvi
metalink
tremor
fdk

# Stuff that doesn't compile on alpha
emf
mono
ocamlopt
openexr

# Stuff we don't want
afs
ots
frei0r
prelude
libtar
aacplus
devil
gts

# Other

# Raúl Porcel <armin76@gentoo.org> (2011-04-23)
# Needs to be tested
video_cards_nouveau

# Ben de Groot <yngwin@gentoo.org> (2009-02-11)
# Both dev-qt/qtphonon and media-sound/phonon are unkeyworded
phonon

# Raúl Porcel <armin76@gentoo.org> (2007-05-14)
# Alpha doesn't have wpa_supplicant keyworded, bug 175714
networkmanager


# alpha doesn't have java support
java
pdfannotextractor

# Mask vpopmail until net-mail/vpopmail goes out of package.mask
vpopmail

# We don't have any virtual/mpi (bug 111807)
mpi

# Matt Turner <mattst88@gentoo.org>
# llvm is not keyworded
video_cards_amdgpu
video_cards_radeonsi

# disable until tested
# # bug 148402
pcsc-lite

# conky dependencies missing keywords related (dragonheart -20061112)
# media-sound/mpd
mpd

# USE=d seems to break gcc-4.1.2 (#178896)
d

# uses gnat/ada which is too big to support currently
topal

# Matt Turner <mattst88@gentoo.org> (2010-12-13)
# We don't have sys-devel/llvm
llvm

# Matt Turner <mattst88@gentoo.org (2012-05-27)
# net-misc/connman is not keyworded
connman

# Matt Turner <mattst88@gentoo.org (2012-05-27)
# sys-apps/entropy is not keyworded
entropy

# Anthony G. Basile <blueness@gentoo.org> (2012-04-15)
# Pulls in net-libs/axtls which is not keyworded for arch
curl_ssl_axtls

# Alexandre Rostovtsev <tetromino@gentoo.org> (2012-12-31)
# media-libs/xine-lib is not keyworded
xine

template-haskell

# nvidia cg toolkit for binary drivers
cg

# Chí-Thanh Christopher Nguyễn <chithanh@gentoo.org> (2013-08-22)
# virtual/opencl is not keyworded
opencl

# Unmask once sys-libs/libunwind gets ported & keyworded.
unwind

# Pacho Ramos <pacho@gentoo.org> (2014-01-08)
# Unmask systemd since it is keyworded here.
-systemd

# Tobias Klausmann <klausman@gentoo.org> (2014-07-20)
# Mask redis USE flag everywhere since redis depends on google-perftools,
# which are not supported on Alpha at all (assembly).
redis

# sys-libs/libseccomp has not been ported to this arch yet #524148
seccomp
